^E:\USERS\ROWELCAPS\DOCUMENTS\VISUAL STUDIO 2017\PROJECTS\EXCERCISE 3-2\EXCERCISE 3-2\DEBUG\DYNAMIC MEMORY ARRAY.OBJ
E:\USERS\ROWELCAPS\DOCUMENTS\VISUAL STUDIO 2017\PROJECTS\EXCERCISE 3-2\DEBUG\EXCERCISE 3-2.ILK
E:\USERS\ROWELCAPS\DOCUMENTS\VISUAL STUDIO 2017\PROJECTS\EXCERCISE 3-2\DEBUG\EXCERCISE 3-2.EXE
E:\USERS\ROWELCAPS\DOCUMENTS\VISUAL STUDIO 2017\PROJECTS\EXCERCISE 3-2\DEBUG\EXCERCISE 3-2.PDB
