^E:\USERS\ROWELCAPS\DOCUMENTS\SY16T3-BASPRG2-TG101B-CAPULONG-ROWEL-LORENZ-M\EXCERCISES\EXCERCISE 4\EXCERCISE 4-3\EXCERCISE 4-3\MAIN.CPP
/c /ZI /nologo /W3 /WX- /sdl /Od /D _MBCS /Gm /EHsc /RTC1 /MDd /GS /fp:precise /Zc:wchar_t /Zc:forScope /Zc:inline /Fo"X64\DEBUG\\" /Fd"X64\DEBUG\VC140.PDB" /Gd /TP E:\USERS\ROWELCAPS\DOCUMENTS\SY16T3-BASPRG2-TG101B-CAPULONG-ROWEL-LORENZ-M\EXCERCISES\EXCERCISE 4\EXCERCISE 4-3\EXCERCISE 4-3\MAIN.CPP
^E:\USERS\ROWELCAPS\DOCUMENTS\SY16T3-BASPRG2-TG101B-CAPULONG-ROWEL-LORENZ-M\EXCERCISES\EXCERCISE 4\EXCERCISE 4-3\EXCERCISE 4-3\SPELL.CPP
/c /ZI /nologo /W3 /WX- /sdl /Od /D _MBCS /Gm /EHsc /RTC1 /MDd /GS /fp:precise /Zc:wchar_t /Zc:forScope /Zc:inline /Fo"X64\DEBUG\\" /Fd"X64\DEBUG\VC140.PDB" /Gd /TP E:\USERS\ROWELCAPS\DOCUMENTS\SY16T3-BASPRG2-TG101B-CAPULONG-ROWEL-LORENZ-M\EXCERCISES\EXCERCISE 4\EXCERCISE 4-3\EXCERCISE 4-3\SPELL.CPP
^E:\USERS\ROWELCAPS\DOCUMENTS\SY16T3-BASPRG2-TG101B-CAPULONG-ROWEL-LORENZ-M\EXCERCISES\EXCERCISE 4\EXCERCISE 4-3\EXCERCISE 4-3\WIZARD.CPP
/c /ZI /nologo /W3 /WX- /sdl /Od /D _MBCS /Gm /EHsc /RTC1 /MDd /GS /fp:precise /Zc:wchar_t /Zc:forScope /Zc:inline /Fo"X64\DEBUG\\" /Fd"X64\DEBUG\VC140.PDB" /Gd /TP E:\USERS\ROWELCAPS\DOCUMENTS\SY16T3-BASPRG2-TG101B-CAPULONG-ROWEL-LORENZ-M\EXCERCISES\EXCERCISE 4\EXCERCISE 4-3\EXCERCISE 4-3\WIZARD.CPP
