^E:\USERS\ROWELCAPS\DOCUMENTS\SY16T3-BASPRG2-TG101B-CAPULONG-ROWEL-LORENZ-M\EXCERCISES\EXCERCISE 4\EXCERCISE 4-3\EXCERCISE 4-3\MAIN.CPP|E:\USERS\ROWELCAPS\DOCUMENTS\SY16T3-BASPRG2-TG101B-CAPULONG-ROWEL-LORENZ-M\EXCERCISES\EXCERCISE 4\EXCERCISE 4-3\EXCERCISE 4-3\SPELL.CPP|E:\USERS\ROWELCAPS\DOCUMENTS\SY16T3-BASPRG2-TG101B-CAPULONG-ROWEL-LORENZ-M\EXCERCISES\EXCERCISE 4\EXCERCISE 4-3\EXCERCISE 4-3\WIZARD.CPP
E:\USERS\ROWELCAPS\DOCUMENTS\SY16T3-BASPRG2-TG101B-CAPULONG-ROWEL-LORENZ-M\EXCERCISES\EXCERCISE 4\EXCERCISE 4-3\EXCERCISE 4-3\X64\DEBUG\VC140.PDB
E:\USERS\ROWELCAPS\DOCUMENTS\SY16T3-BASPRG2-TG101B-CAPULONG-ROWEL-LORENZ-M\EXCERCISES\EXCERCISE 4\EXCERCISE 4-3\EXCERCISE 4-3\X64\DEBUG\VC140.IDB
^E:\USERS\ROWELCAPS\DOCUMENTS\SY16T3-BASPRG2-TG101B-CAPULONG-ROWEL-LORENZ-M\EXCERCISES\EXCERCISE 4\EXCERCISE 4-3\EXCERCISE 4-3\MAIN.CPP
E:\USERS\ROWELCAPS\DOCUMENTS\SY16T3-BASPRG2-TG101B-CAPULONG-ROWEL-LORENZ-M\EXCERCISES\EXCERCISE 4\EXCERCISE 4-3\EXCERCISE 4-3\X64\DEBUG\VC140.PDB
^E:\USERS\ROWELCAPS\DOCUMENTS\SY16T3-BASPRG2-TG101B-CAPULONG-ROWEL-LORENZ-M\EXCERCISES\EXCERCISE 4\EXCERCISE 4-3\EXCERCISE 4-3\SPELL.CPP
E:\USERS\ROWELCAPS\DOCUMENTS\SY16T3-BASPRG2-TG101B-CAPULONG-ROWEL-LORENZ-M\EXCERCISES\EXCERCISE 4\EXCERCISE 4-3\EXCERCISE 4-3\X64\DEBUG\VC140.PDB
^E:\USERS\ROWELCAPS\DOCUMENTS\SY16T3-BASPRG2-TG101B-CAPULONG-ROWEL-LORENZ-M\EXCERCISES\EXCERCISE 4\EXCERCISE 4-3\EXCERCISE 4-3\WIZARD.CPP
E:\USERS\ROWELCAPS\DOCUMENTS\SY16T3-BASPRG2-TG101B-CAPULONG-ROWEL-LORENZ-M\EXCERCISES\EXCERCISE 4\EXCERCISE 4-3\EXCERCISE 4-3\X64\DEBUG\VC140.PDB
