﻿  SUGGEST_A_PACKAGE.cpp
e:\users\rowelcaps\documents\visual studio 2015\projects\basprog2 - quiz 1\basprog2 - quiz 1\suggest_a_package.cpp(119): warning C4715: 'suggestPackage': not all control paths return a value
  BASPROG2 - QUIZ 1.vcxproj -> e:\users\rowelcaps\documents\visual studio 2015\Projects\BASPROG2 - QUIZ 1\Debug\BASPROG2 - QUIZ 1.exe
  BASPROG2 - QUIZ 1.vcxproj -> e:\users\rowelcaps\documents\visual studio 2015\Projects\BASPROG2 - QUIZ 1\Debug\BASPROG2 - QUIZ 1.pdb (Partial PDB)
